\relax 
\providecommand\hyper@newdestlabel[2]{}
\providecommand\HyperFirstAtBeginDocument{\AtBeginDocument}
\HyperFirstAtBeginDocument{\ifx\hyper@anchor\@undefined
\global\let\oldcontentsline\contentsline
\gdef\contentsline#1#2#3#4{\oldcontentsline{#1}{#2}{#3}}
\global\let\oldnewlabel\newlabel
\gdef\newlabel#1#2{\newlabelxx{#1}#2}
\gdef\newlabelxx#1#2#3#4#5#6{\oldnewlabel{#1}{{#2}{#3}}}
\AtEndDocument{\ifx\hyper@anchor\@undefined
\let\contentsline\oldcontentsline
\let\newlabel\oldnewlabel
\fi}
\fi}
\global\let\hyper@last\relax 
\gdef\HyperFirstAtBeginDocument#1{#1}
\providecommand*\HyPL@Entry[1]{}
\HyPL@Entry{0<</P(0)>>}
\@writefile{toc}{\beamer@endinputifotherversion {3.36pt}}
\@writefile{nav}{\beamer@endinputifotherversion {3.36pt}}
\@writefile{nav}{\headcommand {\slideentry {0}{0}{1}{1/1}{}{0}}}
\@writefile{nav}{\headcommand {\beamer@framepages {1}{1}}}
\HyPL@Entry{1<</P(1)>>}
\@writefile{nav}{\headcommand {\slideentry {0}{0}{2}{2/2}{}{0}}}
\@writefile{nav}{\headcommand {\beamer@framepages {2}{2}}}
\@writefile{toc}{\beamer@sectionintoc {1}{Introducción}{3}{0}{1}}
\@writefile{nav}{\headcommand {\sectionentry {1}{Introducción}{3}{Introducción}{0}}}
\@writefile{nav}{\headcommand {\beamer@sectionpages {1}{2}}}
\@writefile{nav}{\headcommand {\beamer@subsectionpages {1}{2}}}
\@writefile{nav}{\headcommand {\slideentry {1}{0}{1}{3/3}{}{0}}}
\@writefile{nav}{\headcommand {\beamer@framepages {3}{3}}}
\HyPL@Entry{3<</P(2)>>}
\@writefile{toc}{\beamer@subsectionintoc {1}{1}{Robótica móvil}{4}{0}{1}}
\@writefile{nav}{\headcommand {\beamer@subsectionentry {0}{1}{1}{4}{Robótica móvil}}\headcommand {\beamer@subsectionpages {3}{3}}}
\@writefile{nav}{\headcommand {\slideentry {1}{1}{1}{4/4}{Robótica móvil}{0}}}
\@writefile{nav}{\headcommand {\beamer@framepages {4}{4}}}
\HyPL@Entry{4<</P(3)>>}
\@writefile{nav}{\headcommand {\slideentry {1}{1}{2}{5/9}{Robótica móvil}{0}}}
\@writefile{nav}{\headcommand {\beamer@framepages {5}{9}}}
\HyPL@Entry{9<</P(4)>>}
\@writefile{toc}{\beamer@subsectionintoc {1}{2}{SLAM y Visual SLAM}{10}{0}{1}}
\@writefile{nav}{\headcommand {\beamer@subsectionentry {0}{1}{2}{10}{SLAM y Visual SLAM}}\headcommand {\beamer@subsectionpages {4}{9}}}
\@writefile{nav}{\headcommand {\slideentry {1}{2}{1}{10/10}{SLAM y Visual SLAM}{0}}}
\@writefile{nav}{\headcommand {\beamer@framepages {10}{10}}}
\HyPL@Entry{10<</P(5)>>}
\@writefile{nav}{\headcommand {\slideentry {1}{2}{2}{11/11}{SLAM y Visual SLAM}{0}}}
\@writefile{nav}{\headcommand {\beamer@framepages {11}{11}}}
\HyPL@Entry{11<</P(6)>>}
\@writefile{nav}{\headcommand {\slideentry {1}{2}{3}{12/12}{SLAM y Visual SLAM}{0}}}
\@writefile{nav}{\headcommand {\beamer@framepages {12}{12}}}
\HyPL@Entry{12<</P(7)>>}
\@writefile{nav}{\headcommand {\slideentry {1}{2}{4}{13/13}{SLAM y Visual SLAM}{0}}}
\@writefile{nav}{\headcommand {\beamer@framepages {13}{13}}}
\HyPL@Entry{13<</P(8)>>}
\@writefile{nav}{\headcommand {\slideentry {1}{2}{5}{14/14}{SLAM y Visual SLAM}{0}}}
\@writefile{nav}{\headcommand {\beamer@framepages {14}{14}}}
\HyPL@Entry{14<</P(9)>>}
\@writefile{nav}{\headcommand {\slideentry {1}{2}{6}{15/15}{SLAM y Visual SLAM}{0}}}
\@writefile{nav}{\headcommand {\beamer@framepages {15}{15}}}
\HyPL@Entry{15<</P(10)>>}
\@writefile{nav}{\headcommand {\slideentry {1}{2}{7}{16/16}{SLAM y Visual SLAM}{0}}}
\@writefile{nav}{\headcommand {\beamer@framepages {16}{16}}}
\HyPL@Entry{16<</P(11)>>}
\@writefile{toc}{\beamer@subsectionintoc {1}{3}{Redes Convolucionales}{17}{0}{1}}
\@writefile{nav}{\headcommand {\beamer@subsectionentry {0}{1}{3}{17}{Redes Convolucionales}}\headcommand {\beamer@subsectionpages {10}{16}}}
\@writefile{nav}{\headcommand {\slideentry {1}{3}{1}{17/17}{Redes Convolucionales}{0}}}
\@writefile{nav}{\headcommand {\beamer@framepages {17}{17}}}
\HyPL@Entry{17<</P(12)>>}
\@writefile{nav}{\headcommand {\slideentry {1}{3}{2}{18/18}{Redes Convolucionales}{0}}}
\@writefile{nav}{\headcommand {\beamer@framepages {18}{18}}}
\HyPL@Entry{18<</P(13)>>}
\@writefile{toc}{\beamer@subsectionintoc {1}{4}{Detección de objetos}{19}{0}{1}}
\@writefile{nav}{\headcommand {\beamer@subsectionentry {0}{1}{4}{19}{Detección de objetos}}\headcommand {\beamer@subsectionpages {17}{18}}}
\@writefile{nav}{\headcommand {\slideentry {1}{4}{1}{19/19}{Detección de objetos}{0}}}
\@writefile{nav}{\headcommand {\beamer@framepages {19}{19}}}
\HyPL@Entry{19<</P(14)>>}
\@writefile{nav}{\headcommand {\slideentry {1}{4}{2}{20/20}{Detección de objetos}{0}}}
\@writefile{nav}{\headcommand {\beamer@framepages {20}{20}}}
\@writefile{toc}{\beamer@sectionintoc {2}{Método propuesto}{21}{0}{2}}
\@writefile{nav}{\headcommand {\sectionentry {2}{Método propuesto}{21}{Método propuesto}{0}}}
\@writefile{nav}{\headcommand {\beamer@sectionpages {3}{20}}}
\@writefile{nav}{\headcommand {\beamer@subsectionpages {19}{20}}}
\@writefile{nav}{\headcommand {\slideentry {2}{0}{1}{21/21}{}{0}}}
\@writefile{nav}{\headcommand {\beamer@framepages {21}{21}}}
\HyPL@Entry{21<</P(15)>>}
\@writefile{toc}{\beamer@subsectionintoc {2}{1}{Adaptación de la red neuronal}{22}{0}{2}}
\@writefile{nav}{\headcommand {\beamer@subsectionentry {0}{2}{1}{22}{Adaptación de la red neuronal}}\headcommand {\beamer@subsectionpages {21}{21}}}
\@writefile{nav}{\headcommand {\slideentry {2}{1}{1}{22/22}{Adaptación de la red neuronal}{0}}}
\@writefile{nav}{\headcommand {\beamer@framepages {22}{22}}}
\HyPL@Entry{22<</P(16)>>}
\@writefile{nav}{\headcommand {\slideentry {2}{1}{2}{23/23}{Adaptación de la red neuronal}{0}}}
\@writefile{nav}{\headcommand {\beamer@framepages {23}{23}}}
\HyPL@Entry{23<</P(17)>>}
\@writefile{nav}{\headcommand {\slideentry {2}{1}{3}{24/24}{Adaptación de la red neuronal}{0}}}
\@writefile{nav}{\headcommand {\beamer@framepages {24}{24}}}
\HyPL@Entry{24<</P(18)>>}
\@writefile{nav}{\headcommand {\slideentry {2}{1}{4}{25/25}{Adaptación de la red neuronal}{0}}}
\@writefile{nav}{\headcommand {\beamer@framepages {25}{25}}}
\HyPL@Entry{25<</P(19)>>}
\@writefile{nav}{\headcommand {\slideentry {2}{1}{5}{26/26}{Adaptación de la red neuronal}{0}}}
\@writefile{nav}{\headcommand {\beamer@framepages {26}{26}}}
\HyPL@Entry{26<</P(20)>>}
\@writefile{nav}{\headcommand {\slideentry {2}{1}{6}{27/27}{Adaptación de la red neuronal}{0}}}
\@writefile{nav}{\headcommand {\beamer@framepages {27}{27}}}
\HyPL@Entry{27<</P(21)>>}
\@writefile{toc}{\beamer@subsectionintoc {2}{2}{Dataset Sintético de entrenamiento}{28}{0}{2}}
\@writefile{nav}{\headcommand {\beamer@subsectionentry {0}{2}{2}{28}{Dataset Sintético de entrenamiento}}\headcommand {\beamer@subsectionpages {22}{27}}}
\@writefile{nav}{\headcommand {\slideentry {2}{2}{1}{28/28}{Dataset Sintético de entrenamiento}{0}}}
\@writefile{nav}{\headcommand {\beamer@framepages {28}{28}}}
\HyPL@Entry{28<</P(22)>>}
\@writefile{nav}{\headcommand {\slideentry {2}{2}{2}{29/29}{Dataset Sintético de entrenamiento}{0}}}
\@writefile{nav}{\headcommand {\beamer@framepages {29}{29}}}
\HyPL@Entry{29<</P(23)>>}
\@writefile{toc}{\beamer@subsectionintoc {2}{3}{Integración del módulo de detección de objetos a S-PTAM}{30}{0}{2}}
\@writefile{nav}{\headcommand {\beamer@subsectionentry {0}{2}{3}{30}{Integración del módulo de detección de objetos a S-PTAM}}\headcommand {\beamer@subsectionpages {28}{29}}}
\@writefile{nav}{\headcommand {\slideentry {2}{3}{1}{30/31}{Integración del módulo de detección de objetos a S-PTAM}{0}}}
\@writefile{nav}{\headcommand {\beamer@framepages {30}{31}}}
\HyPL@Entry{31<</P(24)>>}
\@writefile{nav}{\headcommand {\slideentry {2}{3}{2}{32/33}{Integración del módulo de detección de objetos a S-PTAM}{0}}}
\@writefile{nav}{\headcommand {\beamer@framepages {32}{33}}}
\@writefile{toc}{\beamer@sectionintoc {3}{Evaluación}{34}{0}{3}}
\@writefile{nav}{\headcommand {\sectionentry {3}{Evaluación}{34}{Evaluación}{0}}}
\@writefile{nav}{\headcommand {\beamer@sectionpages {21}{33}}}
\@writefile{nav}{\headcommand {\beamer@subsectionpages {30}{33}}}
\@writefile{nav}{\headcommand {\slideentry {3}{0}{1}{34/34}{}{0}}}
\@writefile{nav}{\headcommand {\beamer@framepages {34}{34}}}
\HyPL@Entry{34<</P(25)>>}
\@writefile{toc}{\beamer@subsectionintoc {3}{1}{Datasets}{35}{0}{3}}
\@writefile{nav}{\headcommand {\beamer@subsectionentry {0}{3}{1}{35}{Datasets}}\headcommand {\beamer@subsectionpages {34}{34}}}
\@writefile{nav}{\headcommand {\slideentry {3}{1}{1}{35/35}{Datasets}{0}}}
\@writefile{nav}{\headcommand {\beamer@framepages {35}{35}}}
\HyPL@Entry{35<</P(26)>>}
\@writefile{toc}{\beamer@subsectionintoc {3}{2}{Resultados}{36}{0}{3}}
\@writefile{nav}{\headcommand {\beamer@subsectionentry {0}{3}{2}{36}{Resultados}}\headcommand {\beamer@subsectionpages {35}{35}}}
\@writefile{nav}{\headcommand {\slideentry {3}{2}{1}{36/36}{Resultados}{0}}}
\@writefile{nav}{\headcommand {\beamer@framepages {36}{36}}}
\HyPL@Entry{36<</P(27)>>}
\@writefile{nav}{\headcommand {\slideentry {3}{2}{2}{37/37}{Resultados}{0}}}
\@writefile{nav}{\headcommand {\beamer@framepages {37}{37}}}
\HyPL@Entry{37<</P(28)>>}
\@writefile{nav}{\headcommand {\slideentry {3}{2}{3}{38/38}{Resultados}{0}}}
\@writefile{nav}{\headcommand {\beamer@framepages {38}{38}}}
\HyPL@Entry{38<</P(29)>>}
\@writefile{nav}{\headcommand {\slideentry {3}{2}{4}{39/39}{Resultados}{0}}}
\@writefile{nav}{\headcommand {\beamer@framepages {39}{39}}}
\HyPL@Entry{39<</P(30)>>}
\@writefile{nav}{\headcommand {\slideentry {3}{2}{5}{40/40}{Resultados}{0}}}
\@writefile{nav}{\headcommand {\beamer@framepages {40}{40}}}
\HyPL@Entry{40<</P(31)>>}
\@writefile{nav}{\headcommand {\slideentry {3}{2}{6}{41/41}{Resultados}{0}}}
\@writefile{nav}{\headcommand {\beamer@framepages {41}{41}}}
\@writefile{toc}{\beamer@sectionintoc {4}{Conclusiones y trabajo futuro}{42}{0}{4}}
\@writefile{nav}{\headcommand {\sectionentry {4}{Conclusiones y trabajo futuro}{42}{Conclusiones y trabajo futuro}{0}}}
\@writefile{nav}{\headcommand {\beamer@sectionpages {34}{41}}}
\@writefile{nav}{\headcommand {\beamer@subsectionpages {36}{41}}}
\@writefile{nav}{\headcommand {\slideentry {4}{0}{1}{42/42}{}{0}}}
\@writefile{nav}{\headcommand {\beamer@framepages {42}{42}}}
\HyPL@Entry{42<</P(32)>>}
\@writefile{nav}{\headcommand {\slideentry {4}{0}{2}{43/43}{}{0}}}
\@writefile{nav}{\headcommand {\beamer@framepages {43}{43}}}
\HyPL@Entry{43<</P(33)>>}
\@writefile{nav}{\headcommand {\slideentry {4}{0}{3}{44/44}{}{0}}}
\@writefile{nav}{\headcommand {\beamer@framepages {44}{44}}}
\@writefile{nav}{\headcommand {\slideentry {4}{0}{4}{45/45}{}{0}}}
\@writefile{nav}{\headcommand {\beamer@framepages {45}{45}}}
\global\@namedef{mainendframenumber}{33}
\HyPL@Entry{45<</P(1)>>}
\@writefile{nav}{\headcommand {\partentry {\translate  {Appendix}}{1}}}
\@writefile{nav}{\headcommand {\beamer@partpages {1}{45}}}
\@writefile{nav}{\headcommand {\beamer@sectionpages {42}{45}}}
\@writefile{nav}{\headcommand {\beamer@subsectionpages {42}{45}}}
\@writefile{nav}{\headcommand {\beamer@appendixpages {46}}}
\@writefile{nav}{\headcommand {\slideentry {4}{0}{5}{46/46}{}{1}}}
\@writefile{nav}{\headcommand {\beamer@framepages {46}{46}}}
\HyPL@Entry{46<</P(2)>>}
\@writefile{nav}{\headcommand {\slideentry {4}{0}{6}{47/47}{}{1}}}
\@writefile{nav}{\headcommand {\beamer@framepages {47}{47}}}
\HyPL@Entry{47<</P(3)>>}
\@writefile{nav}{\headcommand {\slideentry {4}{0}{7}{48/48}{}{1}}}
\@writefile{nav}{\headcommand {\beamer@framepages {48}{48}}}
\HyPL@Entry{48<</P(4)>>}
\@writefile{nav}{\headcommand {\slideentry {4}{0}{8}{49/49}{}{1}}}
\@writefile{nav}{\headcommand {\beamer@framepages {49}{49}}}
\HyPL@Entry{49<</P(5)>>}
\@writefile{nav}{\headcommand {\slideentry {4}{0}{9}{50/50}{}{1}}}
\@writefile{nav}{\headcommand {\beamer@framepages {50}{50}}}
\@writefile{nav}{\headcommand {\beamer@partpages {46}{50}}}
\@writefile{nav}{\headcommand {\beamer@subsectionpages {46}{50}}}
\@writefile{nav}{\headcommand {\beamer@sectionpages {46}{50}}}
\@writefile{nav}{\headcommand {\beamer@documentpages {50}}}
\@writefile{nav}{\headcommand {\def \inserttotalframenumber {5}}}
\global\@namedef{appendixtotalframenumber}{5}
\global\@namedef{inserttotalframenumber}{33}
\@writefile{nav}{\headcommand {\def \inserttotalframenumber {33}}}
\@writefile{nav}{\headcommand {\def \appendixtotalframenumber {5}}}
